<?xml version="1.0" encoding="utf-8"?>
<!-- Generator: Adobe Illustrator 20.0.0, SVG Export Plug-In . SVG Version: 6.00 Build 0)  -->
<svg version="1.1" id="Layer_1" xmlns="http://www.w3.org/2000/svg" xmlns:xlink="http://www.w3.org/1999/xlink" x="0px" y="0px"
	 viewBox="0 0 121.96 195.14" style="enable-background:new 0 0 121.96 195.14;" xml:space="preserve">
<style type="text/css">
	.st0{clip-path:url(#SVGID_2_);fill:#25B99A;}
	.st1{clip-path:url(#SVGID_2_);fill:#3B97D3;}
	.st2{clip-path:url(#SVGID_2_);fill:#E57E25;}
	.st3{clip-path:url(#SVGID_2_);fill:#F0C419;}
	.st4{clip-path:url(#SVGID_2_);fill:#4EBA6F;}
	.st5{clip-path:url(#SVGID_2_);fill:#E64C3C;}
	.st6{clip-path:url(#SVGID_2_);fill:#965BA5;}
</style>
<g>
	<defs>
		<path id="SVGID_1_" d="M60.98,0C27.3,0,0,27.3,0,60.98c0,60.98,60.98,134.16,60.98,134.16s60.98-73.18,60.98-134.16
			C121.96,27.3,94.66,0,60.98,0z M60.98,97.57c-20.21,0-36.59-16.38-36.59-36.59s16.38-36.59,36.59-36.59s36.59,16.38,36.59,36.59
			S81.19,97.57,60.98,97.57z"/>
	</defs>
	<clipPath id="SVGID_2_">
		<use xlink:href="#SVGID_1_"  style="overflow:visible;"/>
	</clipPath>
	<path class="st0" d="M60.12,227.94c-67.58,0-122.55-54.98-122.55-122.55c0-67.58,54.98-122.55,122.55-122.55
		c67.58,0,122.56,54.98,122.56,122.55C182.67,172.96,127.7,227.94,60.12,227.94z"/>
	<path class="st1" d="M91.29,89.43c-35.37,0-64.15-28.78-64.15-64.15c0-35.37,28.78-64.15,64.15-64.15s64.15,28.78,64.15,64.15
		C155.44,60.65,126.67,89.43,91.29,89.43z"/>
	<path class="st2" d="M21.08,179.09c-30.3,0-54.95-24.65-54.95-54.95S-9.21,69.2,21.08,69.2s54.95,24.65,54.95,54.95
		S51.38,179.09,21.08,179.09z"/>
	<path class="st3" d="M82.18,146.37c-25.22,0-45.74-20.52-45.74-45.75s20.52-45.74,45.74-45.74s45.74,20.52,45.74,45.74
		S107.4,146.37,82.18,146.37z"/>
	<path class="st4" d="M78.35,214.37c-20.15,0-36.54-16.39-36.54-36.54s16.39-36.54,36.54-36.54s36.54,16.39,36.54,36.54
		S98.5,214.37,78.35,214.37z"/>
	<path class="st5" d="M26.2,110.07c-15.08,0-27.34-12.26-27.34-27.34c0-15.07,12.26-27.34,27.34-27.34s27.34,12.26,27.34,27.34
		C53.53,97.8,41.27,110.07,26.2,110.07z"/>
	<circle class="st6" cx="78.35" cy="18.3" r="18.13"/>
</g>
</svg>
